{
  "days": [
    {
      "day": 1,
      "input": [
        169,
        150,
        158,
        163,
        167,
        151,
        152,
        153,
        154,
        159,
        168,
        176,
        182,
        183,
        188,
        182,
        183,
        184,
        185,
        195,
        199,
        198,
        196,
        211,
        212,
        202,
        203,
        208,
        205,
        204,
        205,
        226,
        208,
        191,
        193,
        195,
        199,
        200,
        198,
        200,
        199,
        214,
        241,
        247,
        242,
        238,
        227,
        228,
        236,
        238,
        242,
        246,
        248,
        236,
        243,
        259,
        261,
        262,
        265,
        264,
        273,
        277,
        279,
        275,
        279,
        295,
        290,
        296,
        288,
        285,
        297,
        296,
        311,
        321,
        346,
        351,
        361,
        391,
        395,
        401,
        397,
        410,
        415,
        417,
        422,
        400,
        396,
        425,
        421,
        426,
        427,
        429,
        430,
        462,
        461,
        462,
        467,
        475,
        479,
        481,
        483,
        487,
        494,
        496,
        511,
        510,
        511,
        514,
        524,
        530,
        532,
        522,
        505,
        516,
        502,
        489,
        488,
        501,
        503,
        479,
        500,
        503,
        507,
        514,
        522,
        532,
        533,
        535,
        540,
        541,
        545,
        530,
        526,
        520,
        521,
        522,
        530,
        525,
        511,
        525,
        528,
        525,
        528,
        530,
        534,
        536,
        563,
        565,
        577,
        578,
        586,
        596,
        598,
        601,
        593,
        618,
        619,
        615,
        612,
        621,
        623,
        619,
        622,
        623,
        618,
        634,
        640,
        647,
        639,
        662,
        679,
        680,
        673,
        676,
        664,
        653,
        652,
        653,
        656,
        671,
        674,
        682,
        684,
        688,
        689,
        691,
        687,
        695,
        692,
        701,
        699,
        700,
        704,
        708,
        706,
        734,
        733,
        732,
        722,
        734,
        733,
        739,
        738,
        757,
        743,
        747,
        759,
        755,
        754,
        767,
        774,
        772,
        771,
        789,
        803,
        819,
        821,
        831,
        827,
        830,
        833,
        836,
        808,
        806,
        809,
        827,
        834,
        844,
        873,
        883,
        875,
        874,
        875,
        876,
        874,
        875,
        864,
        861,
        863,
        866,
        878,
        840,
        851,
        862,
        880,
        881,
        882,
        894,
        893,
        905,
        902,
        912,
        927,
        922,
        900,
        920,
        909,
        910,
        909,
        907,
        908,
        912,
        942,
        941,
        944,
        945,
        939,
        961,
        965,
        933,
        935,
        934,
        933,
        912,
        913,
        914,
        919,
        926,
        920,
        931,
        932,
        933,
        920,
        922,
        921,
        920,
        919,
        920,
        923,
        932,
        930,
        918,
        914,
        908,
        923,
        938,
        952,
        946,
        951,
        953,
        952,
        957,
        966,
        964,
        963,
        961,
        962,
        961,
        991,
        995,
        1015,
        1013,
        1025,
        1023,
        1019,
        1021,
        1041,
        1048,
        1053,
        1047,
        1061,
        1060,
        1088,
        1092,
        1096,
        1098,
        1116,
        1085,
        1082,
        1069,
        1068,
        1069,
        1067,
        1072,
        1077,
        1093,
        1084,
        1102,
        1093,
        1099,
        1082,
        1097,
        1096,
        1101,
        1088,
        1089,
        1077,
        1058,
        1068,
        1071,
        1072,
        1083,
        1074,
        1087,
        1094,
        1093,
        1094,
        1095,
        1099,
        1100,
        1102,
        1104,
        1107,
        1102,
        1104,
        1093,
        1104,
        1101,
        1115,
        1122,
        1121,
        1098,
        1097,
        1094,
        1124,
        1123,
        1120,
        1118,
        1123,
        1125,
        1097,
        1098,
        1101,
        1072,
        1068,
        1067,
        1093,
        1095,
        1100,
        1108,
        1097,
        1115,
        1125,
        1126,
        1128,
        1151,
        1152,
        1151,
        1150,
        1163,
        1162,
        1159,
        1162,
        1158,
        1162,
        1153,
        1145,
        1144,
        1155,
        1165,
        1156,
        1161,
        1151,
        1152,
        1149,
        1150,
        1152,
        1153,
        1157,
        1148,
        1147,
        1140,
        1151,
        1157,
        1154,
        1153,
        1166,
        1163,
        1173,
        1174,
        1173,
        1198,
        1199,
        1208,
        1212,
        1213,
        1200,
        1213,
        1215,
        1214,
        1216,
        1232,
        1205,
        1215,
        1216,
        1241,
        1240,
        1238,
        1244,
        1250,
        1244,
        1246,
        1256,
        1264,
        1263,
        1265,
        1260,
        1259,
        1269,
        1258,
        1262,
        1259,
        1260,
        1263,
        1234,
        1240,
        1242,
        1246,
        1245,
        1227,
        1228,
        1229,
        1210,
        1213,
        1214,
        1216,
        1213,
        1200,
        1206,
        1220,
        1219,
        1189,
        1193,
        1184,
        1183,
        1179,
        1184,
        1189,
        1175,
        1176,
        1177,
        1186,
        1187,
        1192,
        1199,
        1227,
        1225,
        1226,
        1232,
        1233,
        1232,
        1239,
        1256,
        1251,
        1267,
        1273,
        1263,
        1260,
        1241,
        1257,
        1258,
        1260,
        1259,
        1268,
        1296,
        1294,
        1302,
        1304,
        1297,
        1289,
        1294,
        1291,
        1261,
        1257,
        1260,
        1268,
        1275,
        1295,
        1301,
        1306,
        1307,
        1311,
        1310,
        1298,
        1305,
        1306,
        1305,
        1296,
        1282,
        1285,
        1304,
        1306,
        1309,
        1307,
        1313,
        1318,
        1315,
        1318,
        1314,
        1307,
        1306,
        1285,
        1287,
        1288,
        1289,
        1290,
        1291,
        1292,
        1293,
        1295,
        1305,
        1321,
        1320,
        1305,
        1299,
        1301,
        1309,
        1316,
        1327,
        1325,
        1327,
        1333,
        1318,
        1338,
        1341,
        1338,
        1355,
        1351,
        1347,
        1345,
        1348,
        1361,
        1368,
        1364,
        1355,
        1351,
        1339,
        1338,
        1341,
        1346,
        1343,
        1342,
        1343,
        1342,
        1339,
        1341,
        1342,
        1352,
        1382,
        1386,
        1397,
        1399,
        1376,
        1378,
        1379,
        1380,
        1382,
        1359,
        1356,
        1372,
        1385,
        1380,
        1375,
        1373,
        1371,
        1376,
        1363,
        1369,
        1372,
        1370,
        1388,
        1389,
        1393,
        1386,
        1380,
        1382,
        1387,
        1398,
        1402,
        1409,
        1415,
        1419,
        1429,
        1445,
        1425,
        1434,
        1432,
        1433,
        1432,
        1433,
        1465,
        1466,
        1460,
        1473,
        1470,
        1475,
        1476,
        1483,
        1480,
        1467,
        1463,
        1468,
        1466,
        1467,
        1466,
        1467,
        1459,
        1461,
        1485,
        1487,
        1488,
        1490,
        1462,
        1477,
        1481,
        1491,
        1506,
        1505,
        1506,
        1518,
        1517,
        1523,
        1531,
        1515,
        1505,
        1506,
        1504,
        1507,
        1513,
        1529,
        1533,
        1538,
        1535,
        1565,
        1566,
        1577,
        1578,
        1601,
        1598,
        1597,
        1585,
        1580,
        1581,
        1574,
        1577,
        1573,
        1608,
        1609,
        1612,
        1621,
        1629,
        1630,
        1636,
        1645,
        1649,
        1664,
        1668,
        1674,
        1676,
        1675,
        1674,
        1666,
        1668,
        1671,
        1690,
        1704,
        1698,
        1702,
        1703,
        1715,
        1689,
        1686,
        1680,
        1683,
        1697,
        1696,
        1689,
        1688,
        1694,
        1693,
        1694,
        1715,
        1714,
        1718,
        1717,
        1713,
        1711,
        1712,
        1748,
        1749,
        1757,
        1756,
        1758,
        1763,
        1762,
        1760,
        1762,
        1744,
        1730,
        1723,
        1736,
        1733,
        1757,
        1745,
        1752,
        1748,
        1755,
        1754,
        1761,
        1753,
        1741,
        1740,
        1739,
        1759,
        1747,
        1748,
        1758,
        1770,
        1768,
        1783,
        1776,
        1760,
        1747,
        1754,
        1753,
        1765,
        1767,
        1757,
        1756,
        1758,
        1757,
        1760,
        1769,
        1767,
        1769,
        1782,
        1786,
        1799,
        1796,
        1793,
        1797,
        1808,
        1811,
        1805,
        1804,
        1797,
        1801,
        1791,
        1796,
        1791,
        1795,
        1792,
        1793,
        1822,
        1827,
        1823,
        1839,
        1831,
        1847,
        1851,
        1852,
        1857,
        1846,
        1850,
        1841,
        1842,
        1845,
        1846,
        1847,
        1846,
        1848,
        1849,
        1852,
        1851,
        1852,
        1850,
        1849,
        1850,
        1849,
        1848,
        1864,
        1879,
        1889,
        1900,
        1915,
        1905,
        1899,
        1900,
        1916,
        1917,
        1916,
        1893,
        1914,
        1927,
        1926,
        1923,
        1926,
        1939,
        1936,
        1915,
        1926,
        1942,
        1943,
        1944,
        1935,
        1934,
        1936,
        1937,
        1936,
        1932,
        1936,
        1943,
        1954,
        1953,
        1958,
        1951,
        1959,
        1958,
        1957,
        1958,
        1959,
        1957,
        1963,
        1973,
        1976,
        1991,
        1995,
        2023,
        2027,
        2034,
        2037,
        2039,
        2040,
        2024,
        2033,
        2034,
        2027,
        2029,
        2046,
        2069,
        2071,
        2078,
        2083,
        2082,
        2093,
        2092,
        2096,
        2075,
        2041,
        2038,
        2062,
        2059,
        2060,
        2061,
        2070,
        2084,
        2079,
        2071,
        2069,
        2059,
        2061,
        2062,
        2065,
        2064,
        2080,
        2081,
        2089,
        2074,
        2075,
        2076,
        2089,
        2093,
        2085,
        2086,
        2080,
        2065,
        2093,
        2102,
        2101,
        2097,
        2109,
        2113,
        2121,
        2122,
        2121,
        2120,
        2147,
        2144,
        2152,
        2145,
        2146,
        2171,
        2159,
        2160,
        2162,
        2166,
        2162,
        2164,
        2158,
        2156,
        2157,
        2159,
        2177,
        2183,
        2174,
        2173,
        2176,
        2179,
        2172,
        2171,
        2154,
        2177,
        2141,
        2142,
        2156,
        2142,
        2145,
        2137,
        2138,
        2151,
        2155,
        2156,
        2155,
        2140,
        2145,
        2120,
        2108,
        2117,
        2124,
        2133,
        2138,
        2137,
        2105,
        2067,
        2077,
        2074,
        2068,
        2071,
        2072,
        2068,
        2069,
        2077,
        2072,
        2075,
        2083,
        2114,
        2116,
        2113,
        2112,
        2131,
        2124,
        2130,
        2129,
        2130,
        2134,
        2136,
        2135,
        2142,
        2171,
        2127,
        2129,
        2140,
        2149,
        2162,
        2161,
        2165,
        2140,
        2168,
        2170,
        2171,
        2177,
        2193,
        2195,
        2200,
        2207,
        2209,
        2210,
        2216,
        2214,
        2217,
        2214,
        2226,
        2235,
        2238,
        2240,
        2245,
        2246,
        2248,
        2258,
        2291,
        2293,
        2295,
        2294,
        2276,
        2307,
        2308,
        2327,
        2328,
        2307,
        2305,
        2306,
        2312,
        2313,
        2322,
        2320,
        2338,
        2354,
        2359,
        2361,
        2362,
        2365,
        2362,
        2350,
        2349,
        2348,
        2341,
        2345,
        2341,
        2338,
        2315,
        2313,
        2316,
        2324,
        2322,
        2325,
        2331,
        2327,
        2333,
        2335,
        2334,
        2335,
        2321,
        2307,
        2305,
        2292,
        2261,
        2262,
        2265,
        2310,
        2311,
        2331,
        2325,
        2316,
        2319,
        2325,
        2331,
        2328,
        2327,
        2340,
        2302,
        2306,
        2307,
        2308,
        2310,
        2311,
        2337,
        2336,
        2321,
        2318,
        2319,
        2311,
        2312,
        2325,
        2326,
        2327,
        2325,
        2317,
        2327,
        2315,
        2314,
        2317,
        2340,
        2341,
        2343,
        2345,
        2343,
        2339,
        2337,
        2339,
        2350,
        2329,
        2331,
        2348,
        2349,
        2357,
        2350,
        2343,
        2339,
        2340,
        2342,
        2329,
        2328,
        2340,
        2332,
        2331,
        2315,
        2321,
        2320,
        2319,
        2321,
        2322,
        2312,
        2313,
        2328,
        2347,
        2346,
        2347,
        2337,
        2341,
        2338,
        2343,
        2342,
        2332,
        2335,
        2343,
        2365,
        2362,
        2364,
        2352,
        2353,
        2354,
        2346,
        2348,
        2351,
        2352,
        2355,
        2350,
        2351,
        2339,
        2360,
        2365,
        2364,
        2366,
        2369,
        2368,
        2366,
        2372,
        2362,
        2370,
        2371,
        2370,
        2371,
        2377,
        2376,
        2381,
        2380,
        2379,
        2362,
        2355,
        2370,
        2376,
        2372,
        2364,
        2363,
        2360,
        2356,
        2348,
        2338,
        2340,
        2341,
        2349,
        2346,
        2339,
        2338,
        2330,
        2333,
        2328,
        2316,
        2314,
        2324,
        2338,
        2341,
        2318,
        2321,
        2346,
        2347,
        2317,
        2321,
        2315,
        2324,
        2326,
        2333,
        2347,
        2348,
        2333,
        2345,
        2352,
        2353,
        2352,
        2355,
        2358,
        2359,
        2367,
        2369,
        2375,
        2365,
        2358,
        2371,
        2374,
        2386,
        2416,
        2418,
        2416,
        2408,
        2409,
        2442,
        2443,
        2446,
        2453,
        2444,
        2490,
        2493,
        2498,
        2493,
        2488,
        2494,
        2495,
        2506,
        2505,
        2508,
        2513,
        2509,
        2502,
        2500,
        2498,
        2515,
        2513,
        2514,
        2513,
        2524,
        2525,
        2534,
        2530,
        2547,
        2530,
        2524,
        2527,
        2523,
        2522,
        2526,
        2528,
        2527,
        2528,
        2547,
        2530,
        2527,
        2530,
        2528,
        2511,
        2493,
        2520,
        2512,
        2490,
        2482,
        2476,
        2456,
        2455,
        2451,
        2452,
        2435,
        2436,
        2425,
        2426,
        2430,
        2441,
        2445,
        2438,
        2445,
        2440,
        2446,
        2445,
        2446,
        2434,
        2433,
        2414,
        2435,
        2434,
        2432,
        2415,
        2384,
        2386,
        2387,
        2400,
        2402,
        2392,
        2388,
        2394,
        2396,
        2377,
        2354,
        2358,
        2370,
        2371,
        2367,
        2368,
        2382,
        2381,
        2385,
        2395,
        2381,
        2356,
        2332,
        2334,
        2348,
        2355,
        2354,
        2371,
        2367,
        2365,
        2374,
        2372,
        2371,
        2374,
        2371,
        2363,
        2375,
        2376,
        2377,
        2418,
        2436,
        2451,
        2435,
        2424,
        2427,
        2459,
        2474,
        2471,
        2469,
        2475,
        2486,
        2491,
        2493,
        2486,
        2472,
        2474,
        2475,
        2472,
        2465,
        2430,
        2442,
        2444,
        2442,
        2443,
        2442,
        2450,
        2451,
        2463,
        2456,
        2445,
        2436,
        2456,
        2464,
        2456,
        2462,
        2463,
        2462,
        2464,
        2468,
        2477,
        2481,
        2482,
        2479,
        2489,
        2494,
        2493,
        2504,
        2505,
        2509,
        2485,
        2484,
        2473,
        2501,
        2512,
        2511,
        2514,
        2511,
        2512,
        2536,
        2543,
        2545,
        2533,
        2535,
        2530,
        2536,
        2544,
        2552,
        2553,
        2557,
        2555,
        2565,
        2561,
        2558,
        2556,
        2555,
        2573,
        2575,
        2576,
        2561,
        2565,
        2566,
        2538,
        2529,
        2530,
        2529,
        2530,
        2538,
        2549,
        2555,
        2556,
        2562,
        2561,
        2562,
        2560,
        2557,
        2576,
        2579,
        2596,
        2598,
        2599,
        2601,
        2612,
        2648,
        2649,
        2648,
        2647,
        2645,
        2642,
        2638,
        2651,
        2658,
        2657,
        2664,
        2663,
        2653,
        2654,
        2662,
        2663,
        2661,
        2660,
        2655,
        2644,
        2645,
        2646,
        2652,
        2663,
        2657,
        2661,
        2655,
        2659,
        2662,
        2675,
        2677,
        2678,
        2688,
        2687,
        2679,
        2678,
        2685,
        2689,
        2691,
        2702,
        2692,
        2691,
        2694,
        2709,
        2712,
        2710,
        2711,
        2709,
        2708,
        2707,
        2711,
        2714,
        2715,
        2729,
        2733,
        2720,
        2723,
        2729,
        2734,
        2698,
        2690,
        2693,
        2688,
        2704,
        2710,
        2717,
        2718,
        2716,
        2730,
        2771,
        2761,
        2777,
        2778,
        2776,
        2777,
        2779,
        2794,
        2795,
        2796,
        2799,
        2807,
        2816,
        2818,
        2819,
        2814,
        2816,
        2824,
        2848,
        2844,
        2838,
        2835,
        2836,
        2849,
        2851,
        2852,
        2856,
        2859,
        2862,
        2863,
        2867,
        2866,
        2878,
        2884,
        2883,
        2892,
        2898,
        2897,
        2896,
        2908,
        2901,
        2886,
        2885,
        2899,
        2897,
        2900,
        2898,
        2894,
        2924,
        2898,
        2903,
        2898,
        2900,
        2909,
        2908,
        2907,
        2895,
        2924,
        2933,
        2916,
        2914,
        2901,
        2895,
        2897,
        2903,
        2907,
        2898,
        2899,
        2905,
        2906,
        2905,
        2906,
        2897,
        2905,
        2909,
        2908,
        2914,
        2915,
        2907,
        2911,
        2919,
        2926,
        2927,
        2953,
        2963,
        2966,
        2967,
        2984,
        2997,
        2996,
        3003,
        2996,
        3007,
        3008,
        3012,
        3029,
        3028,
        3031,
        3029,
        3030,
        3031,
        3003,
        2999,
        3013,
        3005,
        2984,
        2997,
        2996,
        2997,
        3003,
        2990,
        2989,
        2990,
        2993,
        2992,
        2996,
        3005,
        3009,
        3008,
        3026,
        3029,
        3024,
        3035,
        3039,
        3057,
        3058,
        3059,
        3053,
        3063,
        3062,
        3065,
        3069,
        3071,
        3063,
        3064,
        3066,
        3080,
        3079,
        3077,
        3099,
        3098,
        3099,
        3102,
        3105,
        3108,
        3114,
        3102,
        3103,
        3105,
        3075,
        3076,
        3085,
        3086,
        3088,
        3086,
        3078,
        3079,
        3076,
        3070,
        3076,
        3078,
        3091,
        3092,
        3100,
        3103,
        3105,
        3095,
        3101,
        3106,
        3095,
        3098,
        3102,
        3103,
        3104,
        3106,
        3113,
        3112,
        3114,
        3111,
        3128,
        3132,
        3129,
        3127,
        3131,
        3139,
        3142,
        3143,
        3145,
        3152,
        3163,
        3153,
        3150,
        3153,
        3168,
        3165,
        3157,
        3179,
        3178,
        3166,
        3164,
        3165,
        3180,
        3182,
        3180,
        3184,
        3190,
        3191,
        3192,
        3176,
        3189,
        3191,
        3183,
        3185,
        3203,
        3213,
        3212,
        3207,
        3208,
        3205,
        3197,
        3191,
        3192,
        3196,
        3198,
        3215,
        3196,
        3197,
        3173,
        3170,
        3176,
        3194,
        3212,
        3213,
        3214,
        3224,
        3223,
        3230,
        3244,
        3245,
        3249,
        3250,
        3264,
        3263,
        3265,
        3266,
        3263,
        3265,
        3267,
        3279,
        3278,
        3257,
        3255,
        3287,
        3288,
        3313,
        3311,
        3310,
        3308,
        3311,
        3315,
        3327,
        3304,
        3303,
        3324,
        3325,
        3324,
        3325,
        3337,
        3344,
        3341,
        3345,
        3344,
        3343,
        3339,
        3334,
        3332,
        3331,
        3326,
        3325,
        3326,
        3336,
        3332,
        3333,
        3349,
        3348,
        3349,
        3348,
        3349,
        3353,
        3363,
        3362,
        3377,
        3374,
        3378,
        3351,
        3360,
        3379,
        3386,
        3376,
        3368,
        3365,
        3364,
        3379,
        3387,
        3386,
        3393,
        3383,
        3354,
        3359,
        3361,
        3366,
        3368,
        3365,
        3369,
        3388,
        3431,
        3433,
        3432,
        3429,
        3430,
        3431,
        3426,
        3427,
        3431,
        3424,
        3443,
        3441,
        3440,
        3447,
        3458,
        3439,
        3437,
        3436,
        3429,
        3430,
        3440,
        3454,
        3448,
        3463,
        3460,
        3461,
        3462,
        3463,
        3461,
        3482,
        3492,
        3491,
        3492,
        3498,
        3504,
        3487,
        3490,
        3483,
        3484,
        3477,
        3486,
        3481,
        3480,
        3490,
        3498,
        3502,
        3501,
        3480,
        3481,
        3489,
        3488,
        3492,
        3475,
        3485,
        3483,
        3480,
        3481,
        3473,
        3478,
        3466,
        3465,
        3471,
        3482,
        3481,
        3490,
        3501,
        3500,
        3503,
        3497,
        3501,
        3496,
        3472,
        3479,
        3463,
        3454,
        3463,
        3458,
        3436,
        3469,
        3460,
        3461,
        3462,
        3464,
        3454,
        3453,
        3448,
        3449,
        3445,
        3447,
        3449,
        3451,
        3450,
        3464,
        3470,
        3471,
        3472,
        3482,
        3487,
        3489,
        3482,
        3481,
        3496,
        3501,
        3503,
        3498,
        3497,
        3499,
        3527,
        3530,
        3524,
        3504,
        3494,
        3499,
        3497,
        3489,
        3507,
        3512,
        3535,
        3536,
        3525,
        3536,
        3554,
        3535,
        3534,
        3535,
        3537,
        3541,
        3542,
        3541,
        3543,
        3540,
        3542,
        3539,
        3549,
        3547,
        3535,
        3532,
        3539,
        3540,
        3557,
        3558,
        3575,
        3576,
        3586,
        3588
      ]
    },
    {
      "day": 2,
      "input": [
        "forward 5",
        "down 9",
        "forward 2",
        "up 2",
        "forward 4",
        "forward 4",
        "up 5",
        "down 3",
        "forward 2",
        "forward 9",
        "down 7",
        "forward 2",
        "down 2",
        "forward 1",
        "up 9",
        "forward 1",
        "forward 4",
        "up 5",
        "down 9",
        "forward 8",
        "forward 3",
        "up 1",
        "down 2",
        "down 3",
        "forward 7",
        "forward 2",
        "up 3",
        "forward 9",
        "forward 9",
        "down 3",
        "up 8",
        "forward 5",
        "forward 7",
        "forward 2",
        "down 7",
        "forward 5",
        "down 4",
        "up 7",
        "forward 8",
        "forward 1",
        "down 3",
        "down 1",
        "forward 6",
        "up 7",
        "forward 6",
        "down 3",
        "forward 9",
        "forward 6",
        "up 3",
        "down 1",
        "forward 8",
        "up 7",
        "down 9",
        "down 2",
        "down 1",
        "down 5",
        "forward 4",
        "down 8",
        "forward 2",
        "down 5",
        "down 6",
        "down 5",
        "forward 5",
        "down 8",
        "up 8",
        "forward 3",
        "forward 4",
        "forward 8",
        "forward 9",
        "down 2",
        "forward 7",
        "forward 3",
        "forward 9",
        "down 3",
        "up 1",
        "down 5",
        "forward 2",
        "down 9",
        "down 2",
        "down 5",
        "down 2",
        "down 9",
        "up 3",
        "forward 6",
        "up 9",
        "down 1",
        "forward 8",
        "up 6",
        "down 1",
        "forward 1",
        "up 1",
        "forward 3",
        "down 8",
        "down 1",
        "down 9",
        "forward 4",
        "forward 1",
        "down 3",
        "forward 8",
        "down 9",
        "forward 7",
        "up 6",
        "down 8",
        "down 6",
        "down 8",
        "down 7",
        "down 1",
        "down 8",
        "down 1",
        "forward 5",
        "down 9",
        "forward 4",
        "down 2",
        "forward 8",
        "up 1",
        "forward 7",
        "down 7",
        "down 6",
        "forward 4",
        "forward 6",
        "down 2",
        "down 2",
        "up 7",
        "down 2",
        "up 9",
        "forward 6",
        "forward 3",
        "down 8",
        "forward 9",
        "down 9",
        "down 9",
        "down 8",
        "forward 2",
        "forward 5",
        "forward 8",
        "forward 1",
        "down 3",
        "forward 1",
        "forward 2",
        "forward 9",
        "up 5",
        "forward 4",
        "forward 2",
        "down 6",
        "forward 3",
        "forward 7",
        "forward 1",
        "forward 8",
        "down 7",
        "forward 4",
        "up 3",
        "down 9",
        "up 2",
        "forward 2",
        "forward 7",
        "down 9",
        "up 9",
        "forward 9",
        "up 8",
        "up 7",
        "down 8",
        "down 9",
        "forward 1",
        "forward 5",
        "up 7",
        "down 3",
        "up 9",
        "forward 9",
        "down 4",
        "down 7",
        "down 7",
        "down 1",
        "down 4",
        "down 5",
        "up 2",
        "forward 2",
        "forward 2",
        "forward 6",
        "down 7",
        "forward 7",
        "down 5",
        "forward 8",
        "down 7",
        "forward 6",
        "down 2",
        "up 2",
        "down 5",
        "down 1",
        "up 4",
        "down 8",
        "up 9",
        "forward 1",
        "down 9",
        "down 6",
        "down 8",
        "up 7",
        "up 1",
        "forward 7",
        "down 8",
        "forward 1",
        "down 4",
        "down 2",
        "forward 3",
        "forward 6",
        "forward 8",
        "down 2",
        "forward 7",
        "forward 8",
        "up 3",
        "down 1",
        "down 8",
        "up 3",
        "down 4",
        "down 5",
        "forward 6",
        "forward 9",
        "down 3",
        "up 2",
        "down 9",
        "up 2",
        "down 3",
        "down 9",
        "forward 4",
        "forward 6",
        "down 7",
        "down 8",
        "down 4",
        "forward 7",
        "up 2",
        "down 5",
        "up 3",
        "down 5",
        "up 1",
        "up 1",
        "forward 5",
        "forward 9",
        "down 9",
        "up 4",
        "up 4",
        "up 8",
        "up 5",
        "forward 7",
        "forward 6",
        "up 6",
        "down 5",
        "forward 4",
        "forward 3",
        "up 6",
        "down 6",
        "forward 5",
        "up 6",
        "up 7",
        "forward 1",
        "forward 2",
        "forward 5",
        "down 3",
        "forward 6",
        "down 6",
        "down 3",
        "up 9",
        "down 4",
        "down 5",
        "down 4",
        "forward 1",
        "down 1",
        "forward 3",
        "up 4",
        "forward 1",
        "forward 5",
        "up 3",
        "forward 6",
        "forward 5",
        "forward 9",
        "forward 6",
        "down 2",
        "forward 2",
        "down 1",
        "down 4",
        "forward 6",
        "forward 8",
        "down 8",
        "up 5",
        "forward 8",
        "forward 3",
        "forward 1",
        "forward 3",
        "forward 6",
        "down 1",
        "down 9",
        "up 7",
        "down 2",
        "forward 6",
        "down 4",
        "down 7",
        "down 5",
        "forward 2",
        "down 1",
        "forward 2",
        "forward 8",
        "forward 4",
        "up 3",
        "down 1",
        "forward 6",
        "forward 3",
        "down 3",
        "down 9",
        "forward 1",
        "up 5",
        "forward 3",
        "forward 3",
        "up 5",
        "down 7",
        "forward 8",
        "up 5",
        "forward 2",
        "forward 2",
        "down 6",
        "up 8",
        "up 5",
        "forward 2",
        "forward 1",
        "down 9",
        "forward 7",
        "down 5",
        "forward 3",
        "down 3",
        "down 5",
        "down 5",
        "up 7",
        "down 8",
        "forward 2",
        "forward 4",
        "forward 5",
        "forward 1",
        "down 6",
        "forward 3",
        "down 1",
        "down 7",
        "forward 3",
        "forward 7",
        "down 5",
        "down 3",
        "forward 6",
        "down 3",
        "down 2",
        "down 4",
        "down 9",
        "forward 7",
        "down 2",
        "up 2",
        "up 6",
        "up 9",
        "up 8",
        "forward 9",
        "down 1",
        "forward 4",
        "forward 2",
        "forward 7",
        "forward 2",
        "down 8",
        "down 3",
        "forward 4",
        "forward 6",
        "down 8",
        "forward 7",
        "forward 6",
        "up 3",
        "down 6",
        "down 1",
        "down 3",
        "down 8",
        "down 2",
        "down 7",
        "down 9",
        "forward 4",
        "forward 7",
        "forward 8",
        "forward 5",
        "forward 9",
        "up 5",
        "down 2",
        "forward 9",
        "forward 6",
        "up 6",
        "forward 7",
        "down 2",
        "down 3",
        "forward 4",
        "down 6",
        "down 1",
        "down 2",
        "down 8",
        "forward 3",
        "down 3",
        "forward 3",
        "down 5",
        "up 8",
        "down 5",
        "forward 8",
        "down 1",
        "forward 1",
        "forward 4",
        "forward 7",
        "down 2",
        "down 5",
        "forward 5",
        "down 8",
        "forward 2",
        "down 2",
        "forward 5",
        "forward 6",
        "forward 4",
        "down 7",
        "up 7",
        "down 1",
        "forward 7",
        "forward 8",
        "down 6",
        "up 7",
        "forward 6",
        "up 6",
        "down 8",
        "forward 5",
        "forward 8",
        "up 4",
        "up 2",
        "up 1",
        "down 8",
        "down 6",
        "up 2",
        "down 5",
        "down 1",
        "forward 5",
        "forward 7",
        "down 2",
        "up 3",
        "up 3",
        "forward 9",
        "down 1",
        "forward 6",
        "down 2",
        "forward 2",
        "down 1",
        "down 9",
        "forward 7",
        "down 5",
        "down 8",
        "up 1",
        "forward 1",
        "down 7",
        "forward 3",
        "down 4",
        "up 4",
        "down 6",
        "forward 1",
        "forward 3",
        "down 2",
        "forward 3",
        "forward 5",
        "forward 6",
        "up 2",
        "up 9",
        "forward 4",
        "down 4",
        "up 1",
        "up 3",
        "forward 8",
        "forward 1",
        "down 9",
        "down 9",
        "forward 2",
        "down 1",
        "up 9",
        "up 3",
        "up 1",
        "up 5",
        "forward 6",
        "down 9",
        "forward 6",
        "forward 9",
        "forward 6",
        "forward 4",
        "up 2",
        "down 6",
        "up 3",
        "forward 3",
        "forward 1",
        "up 4",
        "forward 7",
        "down 9",
        "down 3",
        "forward 9",
        "down 4",
        "down 8",
        "down 3",
        "up 8",
        "down 8",
        "down 8",
        "forward 2",
        "forward 8",
        "up 9",
        "forward 2",
        "up 6",
        "forward 7",
        "down 1",
        "forward 5",
        "forward 4",
        "forward 1",
        "forward 7",
        "up 9",
        "down 8",
        "forward 1",
        "up 5",
        "forward 9",
        "forward 2",
        "forward 8",
        "down 1",
        "forward 7",
        "down 2",
        "up 8",
        "down 6",
        "up 9",
        "up 3",
        "down 6",
        "forward 5",
        "down 1",
        "forward 1",
        "forward 6",
        "forward 6",
        "up 1",
        "forward 5",
        "forward 1",
        "up 2",
        "forward 9",
        "forward 6",
        "down 3",
        "up 1",
        "forward 7",
        "forward 2",
        "down 1",
        "forward 6",
        "down 3",
        "up 2",
        "down 3",
        "down 8",
        "forward 4",
        "down 2",
        "up 7",
        "down 6",
        "up 5",
        "down 7",
        "forward 4",
        "down 9",
        "down 3",
        "forward 2",
        "up 5",
        "up 4",
        "forward 9",
        "down 1",
        "up 2",
        "forward 4",
        "down 9",
        "down 8",
        "forward 5",
        "forward 2",
        "down 5",
        "forward 6",
        "down 4",
        "forward 7",
        "forward 1",
        "forward 6",
        "down 3",
        "down 9",
        "forward 9",
        "forward 2",
        "forward 6",
        "down 7",
        "down 5",
        "down 3",
        "forward 7",
        "down 3",
        "down 3",
        "down 4",
        "down 4",
        "down 7",
        "down 7",
        "down 7",
        "up 7",
        "up 9",
        "up 7",
        "up 3",
        "up 4",
        "down 9",
        "down 4",
        "up 3",
        "forward 2",
        "up 1",
        "down 9",
        "down 6",
        "up 1",
        "up 2",
        "down 7",
        "down 9",
        "up 2",
        "forward 7",
        "down 4",
        "forward 3",
        "down 1",
        "down 7",
        "forward 7",
        "up 7",
        "forward 3",
        "forward 1",
        "forward 6",
        "forward 2",
        "down 9",
        "forward 8",
        "up 8",
        "down 8",
        "down 9",
        "up 1",
        "down 4",
        "down 6",
        "down 8",
        "up 4",
        "down 1",
        "forward 1",
        "forward 1",
        "forward 4",
        "forward 7",
        "forward 1",
        "down 4",
        "forward 5",
        "up 3",
        "forward 4",
        "down 5",
        "down 1",
        "up 2",
        "down 7",
        "forward 7",
        "down 7",
        "up 9",
        "down 9",
        "down 3",
        "up 2",
        "up 8",
        "up 8",
        "up 7",
        "forward 7",
        "forward 5",
        "forward 3",
        "forward 2",
        "down 5",
        "forward 4",
        "forward 1",
        "down 6",
        "down 1",
        "forward 8",
        "down 6",
        "down 3",
        "down 5",
        "down 9",
        "down 3",
        "forward 7",
        "forward 6",
        "down 6",
        "forward 9",
        "up 7",
        "forward 3",
        "up 5",
        "down 5",
        "down 5",
        "forward 4",
        "up 6",
        "down 6",
        "forward 3",
        "up 2",
        "forward 4",
        "up 1",
        "down 5",
        "forward 6",
        "forward 9",
        "down 2",
        "up 2",
        "down 2",
        "up 7",
        "forward 3",
        "up 2",
        "forward 9",
        "forward 5",
        "down 5",
        "down 7",
        "down 8",
        "down 6",
        "up 9",
        "up 5",
        "forward 7",
        "down 8",
        "down 1",
        "forward 7",
        "up 2",
        "forward 4",
        "forward 2",
        "up 9",
        "down 8",
        "forward 1",
        "forward 7",
        "down 2",
        "down 3",
        "down 6",
        "down 3",
        "forward 1",
        "up 6",
        "forward 8",
        "down 9",
        "down 9",
        "forward 8",
        "up 8",
        "down 6",
        "forward 4",
        "up 1",
        "forward 5",
        "down 3",
        "down 7",
        "down 7",
        "down 3",
        "up 2",
        "forward 4",
        "down 9",
        "forward 2",
        "down 9",
        "forward 9",
        "forward 4",
        "forward 5",
        "down 4",
        "forward 1",
        "up 1",
        "forward 4",
        "up 3",
        "up 4",
        "forward 7",
        "down 9",
        "forward 6",
        "down 1",
        "down 1",
        "down 2",
        "down 4",
        "forward 7",
        "forward 8",
        "forward 6",
        "down 8",
        "forward 2",
        "down 3",
        "up 5",
        "forward 2",
        "up 5",
        "forward 8",
        "down 8",
        "down 8",
        "up 8",
        "forward 6",
        "up 1",
        "down 3",
        "forward 6",
        "down 1",
        "forward 9",
        "up 1",
        "forward 7",
        "forward 7",
        "down 1",
        "forward 5",
        "forward 2",
        "up 7",
        "down 1",
        "forward 2",
        "down 4",
        "forward 3",
        "down 9",
        "forward 6",
        "up 5",
        "forward 1",
        "forward 5",
        "down 7",
        "forward 6",
        "down 8",
        "forward 9",
        "down 1",
        "forward 9",
        "down 1",
        "forward 5",
        "up 9",
        "forward 1",
        "forward 6",
        "forward 5",
        "down 7",
        "down 6",
        "down 5",
        "down 9",
        "forward 9",
        "down 2",
        "down 8",
        "down 8",
        "forward 2",
        "forward 3",
        "forward 3",
        "down 3",
        "forward 8",
        "forward 8",
        "down 8",
        "forward 1",
        "up 1",
        "forward 4",
        "down 7",
        "forward 1",
        "up 2",
        "forward 9",
        "forward 1",
        "down 6",
        "up 9",
        "down 3",
        "down 1",
        "up 1",
        "up 6",
        "up 7",
        "forward 9",
        "up 2",
        "forward 4",
        "up 8",
        "down 6",
        "forward 3",
        "forward 7",
        "down 6",
        "down 5",
        "down 3",
        "forward 5",
        "down 1",
        "forward 2",
        "forward 9",
        "down 8",
        "up 6",
        "forward 3",
        "forward 2",
        "up 7",
        "down 3",
        "forward 5",
        "forward 9",
        "down 5",
        "down 1",
        "up 4",
        "down 8",
        "forward 1",
        "forward 3",
        "forward 3",
        "down 2",
        "forward 5",
        "down 1",
        "forward 2",
        "up 3",
        "forward 8",
        "down 2",
        "up 8",
        "down 6",
        "down 8",
        "forward 4",
        "down 4",
        "up 7",
        "up 6",
        "down 7",
        "forward 2",
        "up 3",
        "forward 3",
        "down 8",
        "forward 8",
        "down 5",
        "forward 5",
        "down 3",
        "up 7",
        "down 1",
        "down 2",
        "up 8",
        "down 6",
        "up 6",
        "down 7",
        "forward 5",
        "up 3",
        "forward 7",
        "forward 2",
        "down 9",
        "down 1",
        "down 4",
        "down 7",
        "forward 9",
        "up 7",
        "forward 5",
        "up 8",
        "forward 8",
        "up 1",
        "forward 2",
        "down 7",
        "down 5",
        "down 6",
        "down 4",
        "up 4",
        "forward 5",
        "forward 6",
        "up 4",
        "forward 8",
        "forward 4",
        "forward 3",
        "up 5",
        "down 6",
        "up 4",
        "forward 8",
        "down 7",
        "forward 3",
        "down 2",
        "down 7",
        "down 5",
        "down 4",
        "forward 5",
        "up 4",
        "forward 4",
        "down 7",
        "down 3",
        "down 9",
        "down 7",
        "forward 2",
        "forward 1",
        "down 7",
        "down 8",
        "forward 1",
        "forward 2",
        "down 5",
        "up 1",
        "down 1",
        "forward 5",
        "down 2",
        "forward 9",
        "forward 7",
        "down 2",
        "forward 6",
        "forward 9",
        "up 5",
        "forward 3",
        "up 5",
        "forward 7",
        "down 6",
        "down 3",
        "up 3",
        "down 4",
        "forward 2",
        "up 4",
        "forward 5",
        "up 9",
        "down 3",
        "up 1",
        "down 1",
        "up 3",
        "forward 4",
        "forward 5",
        "down 3",
        "forward 5",
        "down 6",
        "down 2",
        "forward 5",
        "forward 3",
        "down 7",
        "down 8",
        "forward 4",
        "down 5",
        "forward 7",
        "forward 2",
        "forward 7",
        "down 7",
        "up 1",
        "forward 6",
        "down 1",
        "forward 1",
        "down 4",
        "forward 1",
        "up 6",
        "forward 8",
        "forward 6",
        "forward 7",
        "up 6",
        "up 7",
        "up 2",
        "down 9",
        "forward 4",
        "up 3",
        "down 1",
        "down 1",
        "forward 3",
        "down 4",
        "down 6",
        "down 8",
        "forward 9",
        "forward 6",
        "down 1",
        "forward 5"
      ]
    },
    {
      "day": 3,
      "input": [
        "011101101110",
        "010110001101",
        "100111000110",
        "011110101000",
        "101101000100",
        "000001100110",
        "110111100010",
        "111000010011",
        "001011000110",
        "111110101101",
        "110100101011",
        "100100011010",
        "001010111001",
        "110111110100",
        "100011011110",
        "111111111010",
        "001000100011",
        "001101100000",
        "010101010000",
        "011000100101",
        "110100000110",
        "110011010011",
        "101011001011",
        "110111100001",
        "000100111111",
        "011110000100",
        "010110111010",
        "011000011011",
        "011001100100",
        "000111111100",
        "010101111101",
        "001110011101",
        "100001001001",
        "111100000011",
        "110110110111",
        "101000011011",
        "110100100000",
        "110101101001",
        "001010111101",
        "010101010100",
        "111101001111",
        "110001000001",
        "000111010111",
        "001001101111",
        "101100011110",
        "001001111011",
        "011100101100",
        "010100110000",
        "000100000010",
        "010000101011",
        "111001010011",
        "001100101111",
        "101000010100",
        "000000111011",
        "010111101000",
        "101000100110",
        "010101111100",
        "101101001100",
        "101001110001",
        "000111110011",
        "111110110000",
        "111101101101",
        "001010111000",
        "101001000101",
        "010000010011",
        "011110010010",
        "000000101011",
        "101000111100",
        "011100001011",
        "000000100001",
        "100011111101",
        "101111011001",
        "000011011010",
        "100010111101",
        "100011001011",
        "011001101100",
        "001101101011",
        "010010010000",
        "110011011011",
        "110100110111",
        "000110100100",
        "110101110001",
        "001010010001",
        "100110100001",
        "010111111001",
        "011101000011",
        "100110010110",
        "100010101101",
        "000001011000",
        "110000111010",
        "001110010100",
        "000110011000",
        "100001110011",
        "101111111001",
        "000011001100",
        "010110011111",
        "101010001101",
        "100001000110",
        "000101011111",
        "110000010101",
        "111100100000",
        "000111100100",
        "011110011000",
        "001111110101",
        "111011110011",
        "010111000101",
        "111101100101",
        "101100011111",
        "100001111111",
        "110011111100",
        "000000111001",
        "100101001001",
        "110001100010",
        "101001000111",
        "101010000101",
        "010000010101",
        "011011000010",
        "101001111011",
        "111100110001",
        "010100110100",
        "000011000011",
        "011001100001",
        "101110000111",
        "000110010000",
        "100011010101",
        "010000111100",
        "011011010011",
        "000011111100",
        "000010100110",
        "110000110001",
        "010110010101",
        "010101100110",
        "111001110011",
        "101011000001",
        "010011101010",
        "011101000001",
        "101111001010",
        "010100111100",
        "110100111011",
        "111010111001",
        "101100110101",
        "100101111110",
        "010111101110",
        "111011001000",
        "001100110100",
        "001110011010",
        "101100111110",
        "100110010101",
        "010011001000",
        "001100010010",
        "100001100101",
        "001001100111",
        "011001111101",
        "010100101101",
        "000011100011",
        "100111010100",
        "101010110100",
        "101011100110",
        "111000001100",
        "101111101101",
        "101001000011",
        "011000010111",
        "011111010101",
        "000000010001",
        "011010101110",
        "110101011100",
        "011000011000",
        "111011010001",
        "110001001111",
        "011100101111",
        "010010100100",
        "110111001111",
        "000001101111",
        "100011100010",
        "110111010110",
        "010000110000",
        "011010001110",
        "001111000111",
        "010001010111",
        "101010101101",
        "100000111001",
        "110110111100",
        "100111010110",
        "011100011100",
        "011011110111",
        "110011101001",
        "110010011000",
        "111010000101",
        "110000001010",
        "000000110100",
        "001010100111",
        "010011001011",
        "111010111110",
        "101111000000",
        "101001010101",
        "010110010000",
        "100010001001",
        "100010100011",
        "010100001100",
        "110000110010",
        "100011100110",
        "001111101100",
        "001110100110",
        "111000100111",
        "111011011000",
        "101010100001",
        "111100011010",
        "000101100101",
        "010111111101",
        "100011110100",
        "011110010001",
        "011001010111",
        "111101110101",
        "101010001010",
        "001010011110",
        "110011100011",
        "001001010100",
        "100010101110",
        "100011000101",
        "011010111110",
        "001011101101",
        "001100101010",
        "111101111011",
        "111101100001",
        "101111101100",
        "100101100000",
        "010011011000",
        "011001001001",
        "111111110001",
        "101000011000",
        "101000110101",
        "111001011100",
        "101100111011",
        "001000010011",
        "101111000110",
        "101001101111",
        "100101000000",
        "111011011010",
        "110001100001",
        "111110110010",
        "001010101001",
        "011010101111",
        "010101000001",
        "110100101010",
        "011110101111",
        "001010111110",
        "100111001010",
        "011011111110",
        "111011100100",
        "101101111011",
        "001111100110",
        "100110010100",
        "101110100100",
        "101111100010",
        "001111101001",
        "100000001111",
        "000111111010",
        "100011010111",
        "010100010101",
        "000100011010",
        "110001110101",
        "000101001101",
        "110101010101",
        "101011101011",
        "011101001110",
        "001000010100",
        "001110011100",
        "110100000010",
        "010010101111",
        "110101010010",
        "011111110101",
        "001111010011",
        "010001100000",
        "111101101000",
        "110100010101",
        "110000100111",
        "100000101100",
        "101110010101",
        "100100101100",
        "000010010101",
        "000111010101",
        "111000000000",
        "101011111010",
        "000101000110",
        "111110101100",
        "000001100100",
        "011101000101",
        "001011110001",
        "000011111000",
        "101000111010",
        "011100001100",
        "111010101000",
        "100010001101",
        "111100000101",
        "010001101110",
        "111000110010",
        "001100100110",
        "111001111011",
        "110101111010",
        "000100100101",
        "100101110100",
        "001011010100",
        "001000001010",
        "011101110011",
        "101110011111",
        "101111011011",
        "001000011001",
        "100011011100",
        "011101000111",
        "011010100000",
        "001111110000",
        "010100000101",
        "001010010000",
        "100101101101",
        "111100010011",
        "100101000011",
        "100000000001",
        "111000111000",
        "000101101010",
        "010101011000",
        "101101010001",
        "111111001001",
        "100001000000",
        "011110100110",
        "111101010111",
        "011111011101",
        "110000110110",
        "110010011110",
        "110000110100",
        "010001101100",
        "011101111110",
        "110111001010",
        "011000111111",
        "101110010010",
        "001010101101",
        "101101101111",
        "000101001110",
        "111000010001",
        "110110100111",
        "010101000100",
        "111001000110",
        "011010100001",
        "111100011110",
        "100101110011",
        "110001000111",
        "101000101010",
        "100101111000",
        "000011101001",
        "011110110010",
        "101111011110",
        "100000111100",
        "001100000101",
        "101010111111",
        "101011110001",
        "000000001010",
        "000000010101",
        "000011000100",
        "111101011101",
        "100100000111",
        "001111010111",
        "010110001010",
        "011001000001",
        "110011110101",
        "010100010110",
        "001111101011",
        "101111011101",
        "001111001001",
        "011001101111",
        "000011000001",
        "101010000011",
        "111101100100",
        "110100100111",
        "101000011101",
        "010101101111",
        "000000001011",
        "110101101111",
        "001110011110",
        "100101010011",
        "001010100101",
        "001110111101",
        "001111101101",
        "111111010110",
        "101011110011",
        "110010111011",
        "101101101011",
        "101100011000",
        "000010100101",
        "010000010001",
        "010101001110",
        "011100111001",
        "010010000001",
        "010111010101",
        "101110001110",
        "000100111110",
        "011110100010",
        "001010110111",
        "100010000010",
        "110010100111",
        "011111001010",
        "111000110011",
        "011000010100",
        "110011000100",
        "010010100110",
        "011110110111",
        "011001010110",
        "000111001111",
        "000111000011",
        "110110011001",
        "011110001000",
        "011110100111",
        "101001100101",
        "001101010000",
        "000111101101",
        "001001010000",
        "001100110000",
        "111001001000",
        "111110010101",
        "001001011100",
        "111111011110",
        "010110101110",
        "101001110110",
        "000000110110",
        "001011110111",
        "011111010111",
        "111100111101",
        "111010001111",
        "001111111010",
        "110001010101",
        "110000011000",
        "000001011001",
        "000010101001",
        "010100101100",
        "011101010111",
        "110100111000",
        "001101000110",
        "001101011010",
        "010000011100",
        "110101011101",
        "010110011010",
        "101011011001",
        "001111111101",
        "100011101100",
        "010011010100",
        "101011101010",
        "011000110101",
        "010001001001",
        "101110111101",
        "001010001000",
        "110101010000",
        "010101000010",
        "101101001010",
        "101000001000",
        "010011100011",
        "100100111000",
        "100010110110",
        "011100101011",
        "000010110111",
        "111000010010",
        "011011111011",
        "101000010001",
        "001010110010",
        "110100110000",
        "010111000000",
        "001011101011",
        "001000010101",
        "000110110111",
        "111001010101",
        "000111001100",
        "011110010011",
        "110010010101",
        "100000000101",
        "110100001010",
        "100000010100",
        "100001010011",
        "100110011101",
        "111100001101",
        "111011111001",
        "101110111110",
        "001000100111",
        "100000010010",
        "011110000110",
        "010101010001",
        "101101100111",
        "010100011000",
        "100110111101",
        "001000001011",
        "100111101001",
        "101100100110",
        "000100010100",
        "010011111101",
        "010001100010",
        "011111111110",
        "001011111000",
        "011110110100",
        "100101101111",
        "110111110001",
        "111000110001",
        "010110101001",
        "010110011001",
        "001010111100",
        "011110000010",
        "100001100010",
        "010011001110",
        "101101011100",
        "011100100110",
        "101000001010",
        "111110111101",
        "111101001000",
        "000010110101",
        "110110001010",
        "100011101101",
        "110111101011",
        "111111100111",
        "101110101010",
        "011010110000",
        "100011111110",
        "101110101111",
        "101001101101",
        "001011001000",
        "010010101011",
        "011100000111",
        "001011111110",
        "001001000110",
        "111000101000",
        "011011000111",
        "111110110011",
        "110010110001",
        "100001000100",
        "000011010100",
        "000101010111",
        "001011000010",
        "010110010011",
        "010111110011",
        "010011100000",
        "100011110001",
        "000100101110",
        "001010010110",
        "011100111011",
        "001101100001",
        "000001000100",
        "111010101100",
        "010001011101",
        "001011010110",
        "011011000100",
        "110000101011",
        "111100000000",
        "111110010100",
        "010010010011",
        "001110000011",
        "110101000011",
        "110101101101",
        "110101000110",
        "010011011100",
        "101101000001",
        "100001001010",
        "101111011111",
        "110111011110",
        "101110001100",
        "001111010101",
        "010110101100",
        "011101001011",
        "101000010000",
        "111000101001",
        "011001100010",
        "111011110100",
        "111101111000",
        "110011100010",
        "010000111011",
        "001101101000",
        "111000000100",
        "011000001001",
        "101110000100",
        "101100011010",
        "011011010101",
        "111000001101",
        "101000111111",
        "100010100101",
        "111000011010",
        "010110001111",
        "010011000011",
        "100011101000",
        "100001000001",
        "101111100100",
        "011000100010",
        "010000101110",
        "011101101100",
        "000011010001",
        "100001110101",
        "010101111110",
        "000011110101",
        "110101110011",
        "011101101001",
        "010000000110",
        "001000111111",
        "011101110010",
        "001011011111",
        "010001100101",
        "011001000111",
        "001010011111",
        "100000110100",
        "010111011010",
        "001110111110",
        "000101101100",
        "111000101110",
        "001010110011",
        "000100101010",
        "010111100111",
        "000110101100",
        "010010111101",
        "110110101110",
        "010010100001",
        "111001011111",
        "001100011011",
        "111000011101",
        "111000010110",
        "000000000100",
        "000010110100",
        "010011110000",
        "011001011000",
        "111110001101",
        "000100000011",
        "001100010100",
        "111110000110",
        "000010111101",
        "111010001101",
        "110011011110",
        "101001111101",
        "110100111110",
        "011010000011",
        "000010000100",
        "111101110100",
        "010000101001",
        "111001010000",
        "110011100111",
        "010111010011",
        "000010101011",
        "010001110001",
        "100010000100",
        "100000001001",
        "011111101001",
        "101010001111",
        "001101001100",
        "111110011010",
        "001101001010",
        "101000010111",
        "011010111000",
        "011001101000",
        "101000111001",
        "100111110011",
        "000000000001",
        "100111011001",
        "011101110110",
        "100001111000",
        "010110101101",
        "011111000000",
        "101010100100",
        "100010101000",
        "001000011111",
        "010110000010",
        "000100000100",
        "001001000010",
        "111000010111",
        "110010101101",
        "101000101101",
        "001110110101",
        "110010011011",
        "011011001111",
        "101010001000",
        "011001110101",
        "101000000101",
        "010010111111",
        "110100110001",
        "000100110001",
        "000000110011",
        "111011100101",
        "111000100010",
        "100100100010",
        "011100010100",
        "010010001110",
        "000010011000",
        "111110111000",
        "100101010010",
        "000001110111",
        "101111101011",
        "100011001001",
        "110110101010",
        "111100100001",
        "000100110000",
        "001111001101",
        "100000010000",
        "011111000001",
        "001111101110",
        "100111101000",
        "000111111011",
        "000001011010",
        "010100110101",
        "001111010000",
        "111011000110",
        "101000001110",
        "000101011000",
        "101011001010",
        "100101101000",
        "110101011011",
        "111000100101",
        "100100101110",
        "111100101000",
        "100110101110",
        "110001111000",
        "111010111011",
        "011011000000",
        "000001101110",
        "110110010110",
        "111100010010",
        "111111011010",
        "101110010100",
        "111010110000",
        "011101000010",
        "111010011001",
        "101001011101",
        "101100010010",
        "010010111011",
        "011110010100",
        "100000101000",
        "000101101001",
        "001000100000",
        "101000101100",
        "011011100100",
        "011100100010",
        "111110000000",
        "011011010001",
        "010110111100",
        "110110101011",
        "111111000010",
        "111101001101",
        "110101001111",
        "111110001110",
        "100001011110",
        "101111100110",
        "011110111111",
        "011011111101",
        "001000010010",
        "110111100000",
        "110001110000",
        "100001000111",
        "000010100010",
        "100000100010",
        "100010001011",
        "000100001100",
        "000000001000",
        "111101010001",
        "010100010001",
        "111001101011",
        "011010001000",
        "010001011100",
        "010101001001",
        "000110101001",
        "001001100001",
        "101000000100",
        "000100000101",
        "100011011000",
        "101100101101",
        "100110100000",
        "010100000111",
        "110100101110",
        "001111100000",
        "011110110110",
        "001100111100",
        "001111100011",
        "100111111010",
        "110011111110",
        "110010011111",
        "110111111101",
        "110000011100",
        "101011000110",
        "100110011111",
        "000011110011",
        "111000111101",
        "101011000100",
        "010111011111",
        "000111011011",
        "111010111100",
        "001110111100",
        "100010110011",
        "010000000010",
        "010000011000",
        "001111000001",
        "100100001001",
        "110101010110",
        "101110001001",
        "010011001100",
        "101100000101",
        "001010111010",
        "001000001100",
        "111100010001",
        "111110100001",
        "101010110101",
        "111100001111",
        "110001110001",
        "000110110100",
        "100100101010",
        "111110101010",
        "110111101010",
        "000111101111",
        "111000101100",
        "000100011101",
        "001110001010",
        "011110011001",
        "110001001011",
        "000111001000",
        "010001001011",
        "000100011100",
        "100000101110",
        "010111111000",
        "111011110010",
        "010011101101",
        "011010000110",
        "010100001111",
        "100100001000",
        "100001011010",
        "100111111011",
        "100000101011",
        "011101011010",
        "111100111001",
        "110010110111",
        "001010000101",
        "101000100000",
        "001111100100",
        "001100111011",
        "011000101101",
        "001110101101",
        "100011000111",
        "001010001101",
        "100110111110",
        "001001101000",
        "111000011000",
        "011001011101",
        "000110100101",
        "101000110010",
        "110110010000",
        "110100001100",
        "000001111110",
        "000111010110",
        "110101000000",
        "110011110001",
        "110100110101",
        "011111100011",
        "111011011110",
        "111111001100",
        "110111100110",
        "011101010010",
        "010001110101",
        "001001101110",
        "010110100011",
        "101101110001",
        "000111101100",
        "000010111111",
        "111001101001",
        "000101111110",
        "000000011110",
        "110011001011",
        "010101010010",
        "111101001010",
        "001010101110",
        "111010100001",
        "101110000010",
        "001101010011",
        "001101101100",
        "000110000110",
        "000010111001",
        "110100100011",
        "011001110111",
        "100001110100",
        "011001101001",
        "000100011011",
        "111001100000",
        "101110101000",
        "000001000001",
        "010111001000",
        "101101110011",
        "111111011000",
        "000001111111",
        "101111110101",
        "000101101111",
        "010111111010",
        "111010100110",
        "110011000010",
        "001110110010",
        "011100000010",
        "001010101010",
        "110110001000",
        "100011111000",
        "110101011000",
        "011001100111",
        "000101110000",
        "010110110000",
        "011010010100",
        "000101100110",
        "001011000100",
        "011100110000",
        "111100011011",
        "110000101100",
        "101110100000",
        "011110000111",
        "100010101111",
        "110111000111",
        "100010110000",
        "110010001111",
        "000001011110",
        "111110000111",
        "101101100110",
        "011001010100",
        "011011011110",
        "111001100101",
        "110101100011",
        "010100111111",
        "001010011001",
        "101101001011",
        "000011100000",
        "000100001001",
        "001010010101",
        "111100100101",
        "111101001100",
        "010111110110",
        "100011110111",
        "100101001000",
        "011011100111",
        "010110000011",
        "101001101011",
        "001101001101",
        "101101011000",
        "011100000011",
        "100101001110",
        "110001000110",
        "101111100111",
        "011111110001",
        "001111001000",
        "001101010010",
        "101110101011",
        "001111011111",
        "001000010000",
        "011011101001",
        "010101100010",
        "111000000110",
        "000100100000",
        "110000000100",
        "011100000110",
        "010100100110",
        "011001001010",
        "111010101011",
        "111001011011",
        "101101011111",
        "010111110101",
        "100101110000",
        "000101011100",
        "001010011011",
        "110110111111",
        "110001001001",
        "000001100101",
        "111110010010",
        "100110110101",
        "010101100001",
        "000001010000",
        "111100111100",
        "111011001100",
        "101100101111",
        "111111001111",
        "111100110100",
        "011010011100",
        "010000001010",
        "010010110010",
        "101110110111",
        "010000100000",
        "100101101100",
        "111001110001",
        "001110011000",
        "101010000111",
        "110011001000",
        "101100111111",
        "010110010010",
        "110011111001",
        "000111001110",
        "011101011011",
        "111011111101",
        "101100010011",
        "010000100101",
        "111110110101",
        "110101011010",
        "010110110101",
        "111011000000",
        "010001110111",
        "101111001100",
        "000100111000",
        "001011010001",
        "010011111100",
        "110011110111",
        "001100010111",
        "000010001110",
        "011001001110",
        "111101101001",
        "001000011000"
      ]
    },
    {
      "day": 4,
      "input": {
        "numbersDrawn": [
          37,
          60,
          87,
          13,
          34,
          72,
          45,
          49,
          61,
          27,
          97,
          88,
          50,
          30,
          76,
          40,
          63,
          9,
          38,
          67,
          82,
          6,
          59,
          90,
          99,
          54,
          11,
          66,
          98,
          23,
          64,
          14,
          18,
          4,
          10,
          89,
          46,
          32,
          19,
          5,
          1,
          53,
          25,
          96,
          2,
          12,
          86,
          58,
          41,
          68,
          95,
          8,
          7,
          3,
          85,
          70,
          35,
          55,
          77,
          44,
          36,
          51,
          15,
          52,
          56,
          57,
          91,
          16,
          71,
          92,
          84,
          17,
          33,
          29,
          47,
          75,
          80,
          39,
          83,
          74,
          73,
          65,
          78,
          69,
          21,
          42,
          31,
          93,
          22,
          62,
          24,
          48,
          81,
          0,
          26,
          43,
          20,
          28,
          94,
          79
        ],
        "boards": "\n66 78  7 45 92\n39 38 62 81 77\n 9 73 25 97 99\n87 80 19  1 71\n85 35 52 26 68\n$\n47 38 84 53 16\n66  3 63 92 94\n71 41 59  1 87\n17 67 62 73 33\n69 12 26 82 55\n$\n89 94 65 57  6\n27 77 60 19 83\n72 58  0 29 91\n33 75 50 64 87\n24 88 32 93 38\n$\n35 82  7 49 43\n58  8 56 54  6\n74 53 98 59 84\n 4 40 11 67 14\n89  1 44 51 45\n$\n44 51 57 75 19\n33 54 24 96  1\n30  0 45 47 38\n58 78 17 74 14\n91 60 32 67 10\n$\n72 91 61 45 49\n68 67 31 69 96\n92 52  9 34 36\n16 77 62 55 41\n42 88 53  4 15\n$\n68 98 73 81 41\n36 43 87 48 95\n55 62  8 12 30\n23 34 59 72 85\n38  7 16 13 79\n$\n66 98 23 69 89\n71 84 79 14 53\n10 62 60 44 28\n49 43 29 45 75\n72 94  5 64  3\n$\n27 99 41 10 91\n 2 94 16 85 75\n25 95 15 34 36\n90 72 76 20 29\n55 18 93 53 69\n$\n84 87 16 80 64\n48 45 63 53 25\n10 44 65 58 59\n94 31 41 35 89\n42 29 71 69 61\n$\n63 44 74 33  3\n65 47 90 52 38\n 9 13 91  4 45\n26 39 94 68 93\n56 31 41 59 32\n$\n17  6 85 74 19\n58 93  9 92 31\n90 69  2 87 11\n67 94 53 66 30\n15 41 59 51 45\n$\n 7 59 76 14 15\n51  3 88 17  2\n42 39 98 84 65\n54 48  9 56 74\n68  5  1 24 13\n$\n55 34 94 50 28\n 8 14 93 64 52\n92 62  9 51 38\n31 74 73 24 59\n33 65  7 75 32\n$\n30 93 48 17 33\n67  7  5  0 69\n54 76 52  1 87\n99 73 50 25 16\n13 20 41 77 62\n$\n54  0 33 23 75\n50  4 29 18 94\n14  8 38 48 53\n84 13 12 91 83\n69 78 55 47 26\n$\n30 65 70 51  1\n22 53 86 46 89\n99 79 20 24 64\n18 92 82  0 68\n57 33 61 12 83\n$\n22 47 21 38 57\n41 63 61 95 79\n 7 52 87 71 14\n40 45 92 73 48\n42  0 26 94  5\n$\n90 98 47 85 52\n19 44 48 59 88\n93 81  7 16 63\n 1 45 84 11 24\n78 27 62 77 37\n$\n34  2  6  3 56\n48 47 12 58 76\n89 78 30 75 20\n91 39 97 69 28\n96 64 32 61 67\n$\n62 25 53 56 97\n42 34 24 64 95\n17 35  7 79 68\n30 74 54 78  3\n88 66 18 38 90\n$\n63 45 80 89 76\n39 57 71 25 79\n 6  3 28 94 34\n82 18 95 42 33\n96 36 27 83 66\n$\n20 87 59 86 21\n14 61  7 23 56\n 5 33 91  0  1\n97 65 82 95 72\n18 26 35 47 69\n$\n86 65 41 97 40\n 2 73 68 34  3\n88 71 79 70 95\n48 62  1 50 77\n13 67 20 15 55\n$\n98 16 93 30 24\n39 11 56 13  3\n14 83 76 58 60\n73 81 63 88 92\n74 96 51 43 77\n$\n 4 12 43 46 53\n34 37 50 60 56\n96 98 10 65 38\n40 24 80 77 73\n23 67 84 64 13\n$\n 5 19 85  1 58\n41 15 44 57 22\n 2 66 80 94 71\n40 55 89 79  0\n56 81 23 30 24\n$\n 0 29 94  4 68\n81  2 20 95 43\n49 40 37 30 96\n19 23 42 26 85\n61 17 12 72 88\n$\n64 26 61 32 68\n80 24 31 67 49\n72 15 88 98 50\n73 55 86 38 10\n87 34 52 29 63\n$\n76 61 36 54 10\n63 56 75 67 29\n11  9 41  4 43\n83 88 45 93 74\n72 70 94 60 98\n$\n44 99 39  5 23\n53 69 68 60 83\n81 72  1 97 20\n43 96 91 11 32\n51  7  8 86 25\n$\n62 36 39 20  5\n52 59  6 74 95\n 2 83 44 43 66\n96 55 79 42 37\n34 32 19  0 90\n$\n84  8 65 35 78\n57 83  4 82 36\n 3 29 74 60 90\n86 47 53 26 10\n52 51 40 32  6\n$\n69 32 77 72 44\n34 54 82 94 23\n 1 60  2 11 36\n17 52  0 73 31\n 5 90 24 21 53\n$\n42 24 18 44  5\n74 19 76 62 34\n61 66  4 77 47\n92 94 78 39 97\n25 91 11 22 23\n$\n11 87 83 93  8\n 7 73 85 84  3\n65 16 71 12 44\n88 61 54 19 97\n72 57 80 59 45\n$\n30 55  1 62 39\n31 45 34  6 43\n68 93 38 57 60\n70 32  5 95 92\n35 83 66 36 91\n$\n76 89 54 36 21\n99 28 62 78 73\n17 72 96 13 91\n79 65 37 81 14\n33 86 31 11 25\n$\n 3 93 37 88 47\n 4  6 19 87 30\n76 22 33 69 64\n36 52 60 82 53\n39  5 61 67 90\n$\n28  6 59 61 75\n40  4 65 43 93\n41 32 60 89 18\n22 11 12  9  0\n26 15 78 90 30\n$\n 8 87 74 70 76\n45 43 63 84 25\n18 68 92  4 31\n66 22 29 71 91\n15 50 64 52  1\n$\n 3 93 25 71 43\n45 48 52  4 94\n36 34 47 74 97\n12 27 64 14 80\n41 17 21 32 88\n$\n76 62 68 24  0\n97 43 37  3 79\n65 25 52 28 20\n29 18 90 89 48\n35 66 19 53 82\n$\n57 98 86 69 24\n55 74 49 12 35\n68 50 70 38 75\n82 56 73  5 89\n90 10 15 14 95\n$\n98 86 47 87 81\n62 51  3 79 10\n60 39 61  9 77\n36 50 89 49 88\n63 95  1 15 69\n$\n72 71 51 33 23\n12 35 97 34 99\n 4 32 36 88 80\n 5 17  3 56  1\n44 19 47 98 26\n$\n55 56 75  5 74\n 4 86 60 67 68\n21 45 40 17  2\n43 39 20 88 33\n24 70 58 13 98\n$\n34 28 86 65 80\n82 23 98 91  0\n61 62 43 51 49\n39 10 58  1 11\n 8 83 17 97 31\n$\n 7 96  2 18 26\n15 86 34 76 61\n75 93 68  3 83\n63 37 85  8 74\n11 51 32 14 23\n$\n25 33 24 86 75\n63 73 97 37 47\n76 72 34 81 27\n93 91 70 20 98\n11 94 64 28  6\n$\n70 86 59 78 95\n47 18 64 40 68\n49 55 20 12 53\n60 76 35 83 50\n32 73 91 46 28\n$\n31 21 92 97 89\n14 82 51  1 62\n43 58 90 18 24\n56 79 54 35 48\n29 39 45 86 66\n$\n62 74 81 27 23\n28 92 66 86 29\n98 95 14 35 11\n13 69 70 64 79\n51 80 87 96 85\n$\n69 15 37 95 29\n 6 45 20 17 36\n62 42  1 77 59\n25 44 72 35 31\n70 73 86 89 97\n$\n81 88 82 99 13\n53 87  2 29 47\n36 94 48 95 65\n96 42 92 61 60\n86 33 83 52 12\n$\n32  4 52 54 24\n28 77 58 80 16\n62 82 59  6 66\n63 72 91 41 29\n36 22 68  0 31\n$\n38 58 51 77 26\n80  5 90 30 20\n33 14 54 53  0\n76 74 63 84 15\n45 73 41 29 69\n$\n28 31 47 97 58\n69  7 86 40 57\n45  1 11 84 54\n29  9 95 93 88\n12  5 79 76 77\n$\n93  7 60 75 12\n49 64 20 46 10\n 3 23 76 42 47\n 9 22  6 34 87\n41 37 66 45 48\n$\n 9 53 64 37 83\n89 43 91 30 36\n39 22 69 79 42\n31 28 55 40 54\n 7 24 44 84 46\n$\n81 75 15 89 31\n11 13 12  5 10\n94 80 22 68  3\n27 60 42 65 58\n40 82 17 92 73\n$\n16 40 98 33 41\n79 72  2 77 86\n14 32 85 74 50\n11 49 62 56  9\n69 20 12 19 60\n$\n95 72 61 54 92\n10  0  1 84 99\n88 62 13 18 86\n89 59 60 29 78\n55 98 27 91 87\n$\n58 37 49 43 76\n14  3 65 13  2\n92 20  6 73  5\n96 53 82 95 99\n15 83 80 26 11\n$\n51 71 56 58 95\n59 84 46 54 94\n 8  7 49 62 83\n47 92 32 31 65\n48 44 57 25 20\n$\n 5  3 26 90 14\n61 16 44  4  0\n49  1 52 82 54\n60 77 86 43 87\n 6 36 73 25 31\n$\n32 25 37 18 63\n60 65 35 24 34\n52 94 12 77 47\n99 83  2 30 74\n58 38 17 75 56\n$\n77 88 70 22 39\n 4 14 86 99 50\n 5 79  2 78 16\n34 46 83 58 13\n71 74 21 76 66\n$\n25 15 99 79 68\n59 95 82 22 53\n 0 70 85 73 67\n36 10 66  6 32\n 1 51 52 40  4\n$\n29 49 64 26 18\n56 28  9  7 99\n20  2 74 71 39\n81 94 55 75 16\n52 45 35 66 11\n$\n42 68 76 37 34\n 0 41 86 19 59\n 7 46 49 30 88\n74 80 24 50 29\n96 78 67 61 26\n$\n45 96 11 99 44\n87 95 32 77 64\n 8 31 80  4 34\n24 91 90 16 60\n13 29 63 67 59\n$\n15 55  0 52 54\n58 45 62 66 85\n91 19 32 16 92\n93 59  8 22  2\n98 33 31 17 84\n$\n28 49 63 81 69\n30 45 46 90 26\n 4 76 94 93 24\n15 16 18 86 62\n 2 98 89 44 67\n$\n32 35 11  1 38\n86 36 70 24 95\n59 94 71 99 40\n48 64 91 25 57\n29 76 68 88 58\n$\n45 81 50 20 68\n85 91 49 38  9\n27  0 58  8 10\n59  1 88 19 89\n23 29 61 99 12\n$\n74 50 41 83  4\n33 34 88 23 14\n89 39 98 75 37\n26 73 80 71 44\n52 53 48 84 85\n$\n47 35 98 73  9\n61  4 71 91 58\n65 40 63 36 86\n12 30 69 46  2\n 6 17 23 32 74\n$\n84 87 59 58 65\n30 53  7 98 48\n71 28  1 77 56\n36 88 52 64 89\n90 37 94 26 39\n$\n25 75 32 48  6\n49  7 74 50 62\n68 51 72 12 10\n94 37 97 69 91\n73  9 67 18  1\n$\n51 96 71 44  0\n97 52  1 77 11\n90  9 15 76 24\n68  6 57 40 98\n47 31 94 82 49\n$\n48 31 26 77 14\n94 93 27  2 82\n11 83 85  9  8\n90 69  4 16 22\n 5 62 29 57 30\n$\n59 46 82 13 53\n71 58 67  2 28\n73 52 30 97 12\n95 34 51 32 38\n62 81  5 15 74\n$\n82 10 58 84 67\n92  5 66 25 83\n90 76 21 26 69\n39 63 42 11 53\n23 61 80 99 48\n$\n 8 13 49 63 83\n26 48 50 53 43\n 1 39 95 60 99\n96  7 35 94 10\n24 44 65 31 46\n$\n87 17 72 71 81\n35 56  4 99 59\n96 90 37 23 86\n34 73 18 19 78\n41 10 43 92 80\n$\n29  7 37 40 70\n72 10 85 74 76\n36  9 13 73 82\n 4 65 49 77 42\n75 24 84 78 39\n$\n29  6 94 59 38\n99 55  8 66 85\n14 43 25 92 67\n49 33 87 39 44\n 9 61 24 90 75\n$\n45 35 78 56 24\n53 38 34 92 55\n20 44 90 33 83\n54 95 71 87 13\n40 43 85 88 68\n$\n32 80 59 34 22\n18  9 12 15 55\n85 60 37 64 92\n35 39 26 90 50\n52 67 58 87  8\n$\n90 96 40 14 61\n34 33 80 22 38\n59 94  3  6  4\n 0 71 25  1 20\n30 57 48 31 10\n$\n50 14 40 48 83\n85 80 29 60  2\n92 59 86 99 57\n46  7 89 66 75\n98  6 45 97 51\n$\n13 17  0 57  5\n29 68 52 11 59\n78 63 94 88 89\n35 54 74 18  2\n28 65 86  1 30\n$\n57 46 44 86 62\n43 89 81 34 13\n32 51  9  6 35\n29 52 84  8 88\n26 21 17 75 85\n$\n14 87 26 22 30\n65 78 98  6 60\n42 99 19 71 11\n68 27 48 52 62\n51  1 54 37 74\n$\n76 69 37 49 61\n20 91 14 31 11\n54 40 67 71 15\n73 64 85 80 62\n 5 10  3 51  7\n$\n63 90 54 46 17\n16  5  4 56 33\n39 41  8 87 80\n14 77 26 47 70\n15 48  6 10 76\n$\n96 95  0 42 56\n 3 87 92 18 60\n51  7 38  4 91\n41 33 80 43 66\n61 32 57 84 10\n$\n 8 64 76 78 17\n55 74 68 47 29\n46 84 49 58 93\n52 26 32 11 33\n24 42 98 27 43\n$\n14 19 27 93 16\n23 32 74 73 67\n68 38  2 22 76\n 6 12 94 15 77\n64 62 34  3 37"
      }
    }
  ]
}
